0	0.0
0.4	0.0
0.8	3.3916e-05
1.2	0.000123347
1.6	0.000211929
2	0.000239892
2.4	0.000287364
2.8	0.00100566
3.2	0.00178722
3.6	0.00351955
4	0.00880916
4.4	0.0180913
4.8	0.0311577
5.2	0.0476048
5.6	0.0663742
6	0.0867667
6.4	0.111308
6.8	0.14077
7.2	0.173413
7.6	0.214141
8	0.264152
8.4	0.316202
8.8	0.366316
9.2	0.413382
9.6	0.456691
10	0.497102
10.4	0.538245
10.8	0.580681
11.2	0.623034
11.6	0.669226
12	0.718954
12.4	0.765104
12.8	0.804603
13.2	0.837941
13.6	0.866087
14	0.890804
14.4	0.913489
14.8	0.933952
15.2	0.952302
15.6	0.969339
16	0.983922
16.4	0.993911
16.8	0.998955
17.2	1.00017
17.6	0.999046
18	0.996693
18.4	0.992024
18.8	0.984196
19.2	0.973685
19.6	0.958898
20	0.938721
20.4	0.91577
20.8	0.892258
21.2	0.868893
21.6	0.846721
22	0.825913
22.4	0.804355
22.8	0.780688
23.2	0.754625
23.6	0.724022
24	0.688523
24.4	0.652739
24.8	0.619737
25.2	0.58946
25.6	0.562266
26	0.537861
26.4	0.514401
26.8	0.490142
27.2	0.463933
27.6	0.434347
28	0.401847
28.4	0.370556
28.8	0.342934
29.2	0.318537
29.6	0.297233
30	0.278759
30.4	0.262127
30.8	0.245485
31.2	0.227331
31.6	0.207243
32	0.186184
32.4	0.166717
32.8	0.150083
33.2	0.13587
33.6	0.123777
34	0.113737
34.4	0.105533
34.8	0.0976327
35.2	0.0887456
35.6	0.0789909
36	0.069431
36.4	0.0611468
36.8	0.0542736
37.2	0.0486683
37.6	0.0440156
38	0.0404751
38.4	0.0384121
38.8	0.0366652
39.2	0.0342828
39.6	0.0315409
40	0.0293405
40.4	0.0278809
40.8	0.0266688
41.2	0.0258291
41.6	0.02514
42	0.0247902
42.4	0.0253851
42.8	0.0262238
43.2	0.026746
43.6	0.0270481
44	0.0277169
44.4	0.0286815
44.8	0.0293194
45.2	0.0298968
45.6	0.030289
46	0.030675
46.4	0.0317022
46.8	0.0329157
47.2	0.0338803
47.6	0.0345674
48	0.0353423
48.4	0.0361775
48.8	0.036608
49.2	0.0368936
49.6	0.0369559
50	0.0369053
50.4	0.0372312
50.8	0.0376975
51.2	0.0380562
51.6	0.0381341
52	0.0380723
52.4	0.038013
52.8	0.0377208
53.2	0.0373396
53.6	0.0368027
54	0.0362325
54.4	0.0359744
54.8	0.0358513
55.2	0.0356236
55.6	0.0350896
56	0.0343309
56.4	0.033584
56.8	0.0328056
57.2	0.0320056
57.6	0.0311199
58	0.0302696
58.4	0.0296293
58.8	0.0290916
59.2	0.0285549
59.6	0.0277973
60	0.0268012
60.4	0.0258483
60.8	0.0249859
61.2	0.0241752
61.6	0.0233315
62	0.0225894
62.4	0.0220676
62.8	0.021622
63.2	0.021152
63.6	0.0205082
64	0.0196961
64.4	0.0189404
64.8	0.018315
65.2	0.0177484
65.6	0.0171676
66	0.0166452
66.4	0.0162316
66.8	0.0158713
67.2	0.0155848
67.6	0.0152284
68	0.0147436
68.4	0.0143142
68.8	0.0139967
69.2	0.0137258
69.6	0.013411
70	0.0131451
70.4	0.0130028
70.8	0.0129176
71.2	0.01286
71.6	0.0127228
72	0.0125116
72.4	0.0123401
72.8	0.0122203
73.2	0.0121204
73.6	0.0119804
74	0.0118236
74.4	0.0117078
74.8	0.0116387
75.2	0.0116496
75.6	0.0116199
76	0.0115209
76.4	0.0114486
76.8	0.0113983
77.2	0.011357
77.6	0.011271
78	0.0111888
78.4	0.0111919
78.8	0.0112261
79.2	0.0112565
79.6	0.0112357
80	0.0111676
80.4	0.0111036
80.8	0.0110448
81.2	0.0109787
81.6	0.0108692
82	0.0107148
82.4	0.0105875
82.8	0.0104982
83.2	0.0104565
83.6	0.0104015
84	0.0102675
84.4	0.0101301
84.8	0.0100032
85.2	0.00986212
85.6	0.00967889
86	0.00948757
86.4	0.00939656
86.8	0.00938088
87.2	0.00934616
87.6	0.00925168
88	0.00909565
88.4	0.00894333
88.8	0.00881227
89.2	0.00867923
89.6	0.0085196
90	0.00833986
90.4	0.00819729
90.8	0.00810465
91.2	0.00806438
91.6	0.00801211
92	0.00790219
92.4	0.00779782
92.8	0.0077147
93.2	0.00764562
93.6	0.00755658
94	0.00748098
94.4	0.00746429
94.8	0.00745167
95.2	0.00744128
95.6	0.00740472
96	0.00732858
96.4	0.00725994
96.8	0.00720519
97.2	0.00716652
97.6	0.00710458
98	0.00704167
98.4	0.00699748
98.8	0.00694597
99.2	0.00692008
99.6	0.00688879
100	0.00682852
100.4	0.00677553
100.8	0.00673275
101.2	0.00670181
101.6	0.00665483
102	0.0066188
102.4	0.00663254
102.8	0.00664599
103.2	0.00666344
103.6	0.00666687
104	0.00664584
104.4	0.006628
104.8	0.00662236
105.2	0.00662394
105.6	0.00658606
106	0.00652239
106.4	0.0064397
106.8	0.00636952
107.2	0.00637464
107.6	0.00640317
108	0.00640339
108.4	0.00639259
108.8	0.00639091
109.2	0.00640013
109.6	0.00639007
110	0.00638454
110.4	0.00641883
110.8	0.00645734
111.2	0.00648729
111.6	0.00651134
112	0.00651816
112.4	0.00651042
112.8	0.00650811
113.2	0.00651241
113.6	0.00649499
114	0.00645128
114.4	0.00638369
114.8	0.00632449
115.2	0.00632346
115.6	0.00633621
116	0.00632339
116.4	0.00630742
116.8	0.00630079
117.2	0.00629373
117.6	0.00626284
118	0.00624474
118.4	0.00624128
118.8	0.00625144
119.2	0.00627786
119.6	0.00627213
120	0.00624496
120.4	0.00621568
120.8	0.00619763
121.2	0.00616824
121.6	0.00609896
122	0.00602972
122.4	0.0059067
122.8	0.00575958
123.2	0.00572062
123.6	0.00569805
124	0.00562695
124.4	0.00554903
124.8	0.00548367
125.2	0.00544282
125.6	0.0053689
126	0.00532308
126.4	0.00531899
126.8	0.00530962
127.2	0.00531582
127.6	0.00529636
128	0.00523335
128.4	0.00515684
128.8	0.00510349
129.2	0.00506476
129.6	0.00500323
130	0.00490043
130.4	0.00474943
130.8	0.00461133
131.2	0.00457767
131.6	0.00454712
132	0.00448063
132.4	0.0044369
132.8	0.00439856
133.2	0.00436954
133.6	0.0043257
134	0.00429773
134.4	0.00433421
134.8	0.00439475
135.2	0.00443692
135.6	0.00444098
136	0.00442499
136.4	0.00441943
136.8	0.00441579
137.2	0.00439949
137.6	0.00436615
138	0.0042944
138.4	0.00422725
138.8	0.00416915
139.2	0.00415924
139.6	0.00417656
140	0.00416455
140.4	0.00416643
140.8	0.00416518
141.2	0.00417177
141.6	0.00415896
142	0.00416602
142.4	0.00427431
142.8	0.00438842
143.2	0.00442451
143.6	0.00444754
144	0.00447705
144.4	0.00448839
144.8	0.00449459
145.2	0.00449963
145.6	0.00449334
146	0.00444398
146.4	0.00440674
146.8	0.00438153
147.2	0.004366
147.6	0.00438358
148	0.00439003
148.4	0.00438876
148.8	0.00437811
149.2	0.00436382
149.6	0.00433506
