0	-0.00942111
0.4	-0.00849039
0.8	0.0168054
1.2	0.015963
1.6	0.0133115
2	0.0539407
2.4	0.0498626
2.8	0.0851586
3.2	0.118584
3.6	0.147337
4	0.162798
4.4	0.218921
4.8	0.264871
5.2	0.272795
5.6	0.32553
6	0.380394
6.4	0.426383
6.8	0.434963
7.2	0.502998
7.6	0.517902
8	0.577904
8.4	0.62216
8.8	0.648179
9.2	0.674686
9.6	0.726899
10	0.741687
10.4	0.778031
10.8	0.803659
11.2	0.846566
11.6	0.884925
12	0.897848
12.4	0.928047
12.8	0.936373
13.2	0.951367
13.6	0.96763
14	0.964748
14.4	0.987805
14.8	0.984586
15.2	0.988018
15.6	0.99545
16	0.984716
16.4	0.98172
16.8	0.964242
17.2	0.960038
17.6	0.962983
18	0.92276
18.4	0.908185
18.8	0.883772
19.2	0.870541
19.6	0.862898
20	0.843796
20.4	0.806289
20.8	0.781995
21.2	0.760195
21.6	0.736272
22	0.710039
22.4	0.679581
22.8	0.651326
23.2	0.642526
23.6	0.614232
24	0.605692
24.4	0.553772
24.8	0.54647
25.2	0.526123
25.6	0.491609
26	0.437956
26.4	0.427195
26.8	0.41964
27.2	0.383456
27.6	0.370131
28	0.348468
28.4	0.341597
28.8	0.317818
29.2	0.299629
29.6	0.285279
30	0.258571
30.4	0.244312
30.8	0.214682
31.2	0.222935
31.6	0.208668
32	0.197504
32.4	0.188072
32.8	0.165948
33.2	0.160652
33.6	0.153741
34	0.147385
34.4	0.152162
34.8	0.132072
35.2	0.136912
35.6	0.126795
36	0.127831
36.4	0.119644
36.8	0.105941
37.2	0.0879636
37.6	0.112553
38	0.0877444
38.4	0.0844933
38.8	0.0918143
39.2	0.0994461
39.6	0.0877343
40	0.0935115
40.4	0.101906
40.8	0.0663168
41.2	0.0766408
41.6	0.0812512
42	0.0821545
42.4	0.0601675
42.8	0.054666
43.2	0.0715387
43.6	0.076496
44	0.0818152
44.4	0.0646736
44.8	0.0708471
45.2	0.0701192
45.6	0.0552571
46	0.0757661
46.4	0.0644119
46.8	0.0505244
47.2	0.056828
47.6	0.0492851
48	0.0495476
48.4	0.0458316
48.8	0.0527073
49.2	0.0524136
49.6	0.0386816
50	0.0483908
50.4	0.0456119
50.8	0.0384143
51.2	0.0426779
51.6	0.0330193
52	0.0555155
52.4	0.0530457
52.8	0.0480346
53.2	0.0305756
53.6	0.0403517
54	0.0426124
54.4	0.0463417
54.8	0.0415016
55.2	0.055119
55.6	0.028965
56	0.0503856
56.4	0.0355945
56.8	0.0374002
57.2	0.037806
57.6	0.0264901
58	0.0278461
58.4	0.0366561
58.8	0.0438946
59.2	0.0358754
59.6	0.0327202
60	0.0450384
60.4	0.029246
60.8	0.0308533
61.2	0.0275318
61.6	0.0339374
62	0.0505316
62.4	0.0332191
62.8	0.0417054
63.2	0.0374201
63.6	0.0371945
64	0.0454965
64.4	0.0342181
64.8	0.0242885
65.2	0.0239172
65.6	0.032971
66	0.0310611
66.4	0.0203756
66.8	0.014228
67.2	0.0178107
67.6	0.00969593
68	0.0189471
68.4	0.0143065
68.8	0.0200159
69.2	0.0122817
69.6	0.0196833
70	0.0217908
70.4	0.0157109
70.8	0.0101517
71.2	0.0192947
71.6	-0.000890249
72	0.00205227
72.4	0.00286087
72.8	-0.00314097
73.2	0.00699733
73.6	-0.0109928